.......
----------------------------------------------------------------------
Ran 7 tests in 0.003s

OK
Name               Stmts   Miss Branch BrPart  Cover   Missing
--------------------------------------------------------------
Diplomacy.py          87      0     42      0   100%
TestDiplomacy.py      38      0      2      1    98%   76->exit
--------------------------------------------------------------
TOTAL                125      0     44      1    99%
