................
----------------------------------------------------------------------
Ran 16 tests in 0.017s

OK
Name               Stmts   Miss Branch BrPart  Cover   Missing
--------------------------------------------------------------
Diplomacy.py          90      0     54      0   100%
TestDiplomacy.py      67      0      0      0   100%
--------------------------------------------------------------
TOTAL                157      0     54      0   100%
