.................
----------------------------------------------------------------------
Ran 17 tests in 0.002s

OK
Name               Stmts   Miss Branch BrPart  Cover   Missing
--------------------------------------------------------------
Diplomacy.py          78      0     46      0   100%
TestDiplomacy.py     166      0      0      0   100%
--------------------------------------------------------------
TOTAL                244      0     46      0   100%