.....
----------------------------------------------------------------------
Ran 5 tests in 0.001s

OK
Name               Stmts   Miss Branch BrPart  Cover   Missing
--------------------------------------------------------------
Diplomacy.py         101      0     48      0   100%
TestDiplomacy.py      31      0      0      0   100%
--------------------------------------------------------------
TOTAL                132      0     48      0   100%
